

       Schedule Roster   10/03/2016

    100000 001P01     Religion Plan         0,0,0,0,5,0    Ortiz, Mr.  REL
    104000 003P01     Math Plan             0,0,4,0,0,0    Taddiken, Mr.
    106000 004P01     Science Plan          0,0,0,0,7,0    Warren, Mrs.  SCI
    108000 005P01     Soc Studies Plan      0,0,6,0,0,0    Willenborg, Mrs.  SSO
    110000 006P01     English Plan          0,0,0,0,3,0    Zinkand, Mr.   EO
    112000 007P01     Foreign Lan Plan      0,0,0,5,0,0    Torres, Mr.
    120000 011P01     Guidance Plan         0,3,0,0,0,0    Vernamonti, Mr.   CD
    124000 015P01     Academic Com.         0,0,0,3,0,0    Vernamonti, Mr.   ACT
    126001 11101      Revelation 111-01     0,2,5,0,1,0    Dobrzycki, Mr.  110
    126002 11102      Revelation 111-02     0,1,0,1,0,3    Dobrzycki, Mr.  110
    126003 11103      Revelation 111-03     0,8,0,6,0,4    Bobak, Brian  132
    126004 11104      Revelation 111-04     0,0,4,0,8,7    Dobrzycki, Mr.                   110
    126005 11105      Revelation 111-05     0,0,1,2,1,0    Barczak, Mr.                     134
    126006 11106      Revelation 111-06     0,8,0,6,0,4    Dobrzycki, Mr.  110
    126007 11107      Revelation 111-07     0,3,8,0,0,5    Clark, Mr.  117,132,230
    126008 11108      Revelation 111-08     0,8,7,6,0,0    Filberg, Br. Charles             118
    126009 11109      Revelation 111-09     0,7,6,0,0,3    Filberg, Br. Charles             118
    126010 11110      Revelation 111-10     0,2,1,0,0,2    Brandell, Mr.                    117
    126011 11111      Revelation 111-11     0,6,5,0,0,8    Barczak, Mr.   134
    126012 11112      Revelation 111-12     0,1,2,0,0,1    Medina, Ryan                     112,117,137
    126013 11113      Revelation 111-13     0,0,4,3,8,0    Medina, Ryan                     100,106,134
    126014 11114      Revelation 111-14     0,3,8,0,0,7    Medina, Ryan                     100,112,117
    126015 11115      Revelation 111-15     0,7,6,5,0,0    Barczak, Mr.                     134
    126016 11116      Revelation 111-16     0,1,0,1,0,1    Rhoades, Br. Leonard             132
    126017 11117      Revelation 111-17     0,6,0,4,0,8    Brandell, Mr.                    117
    127000 111Lec01   Revelation 111Lec     2,0,0,0,0,0    Rhoades, Br. Leonard  LHN
    128000 111P01     Revel 111 Plan        0,0,0,0,5,0    Rhoades, Br. Leonard  RO
    130001 12101      Jesus and Morality-01 1,2,1,0,0,2    Harris, Josh  134,136
    130002 12102      Jesus and Morality-02 1,0,1,0,1,2    Medina, Ryan  122,136,137,138
    130003 12103      Jesus and Morality-03 5,4,0,0,7,6    Medina, Ryan  106,108,110,112
    130004 12104      Jesus and Morality-04 5,0,3,0,7,6    Hubaykah, Ashley  100,109,129,138
    130005 12105      Jesus and Morality-05 6,5,0,0,8,7    Hubaykah, Ashley                 100,109,129,138
    130006 12106      Jesus and Morality-06 6,5,4,0,0,7    Harris, Josh  115,132,234,242
    130007 12107      Jesus and Morality-07 7,6,5,0,0,8    Medina, Ryan  100,112,117
    130008 12108      Jesus and Morality-08 6,5,0,0,8,7    Goedeke, Mr.  136
    130009 12109      Jesus and Morality-09 0,7,6,0,4,3    Hubaykah, Ashley  134,138
    130010 12110      Jesus and Morality-10 8,7,6,0,4,0    Medina, Ryan                     100,112,132,134
    130011 12111      Jesus and Morality-11 5,0,3,0,7,6    Goedeke, Mr.  136
    132000 121Lec01   Jesus/Morality Lec    0,0,0,6,0,0    Medina, Ryan  LHN
    134000 121P01     J&M  Plan             0,8,0,0,0,0    Medina, Ryan  RO
    138001 12301      Jesus/Morality 123-01 4,0,8,0,6,5    Barczak, Mr.                     134
    138002 12302      Jesus/Morality 123-02 5,4,0,0,7,6    Barczak, Mr.                     134
    138003 12303      Jesus/Morality 123-03 6,5,0,0,8,7    Barczak, Mr.                     134
    138500 123Lec01   Jesus Lec 123         0,0,0,6,0,0    Barczak, Mr.   230
    146001 13101      Church/Mission 131-01 1,2,1,2,0,0    Jones, Ms.                       138
    146002 13102      Church/Mission 131-02 0,8,2,6,0,4    Jones, Ms.   138
    146003 13103      Church/Mission 131-03 4,3,8,7,0,0    Jones, Ms.                       138
    146004 13104      Church/Mission 131-04 1,2,1,2,0,0    Hubaykah, Ashley  107,114,115,133
    146005 13105      Church/Mission 131-05 7,0,5,4,0,8    Hubaykah, Ashley  113,134,138
    146006 13106      Church/Mission 131-06 5,4,0,8,0,6    Ortiz, Mr.                       113,118,132,136
    146007 13107      Church/Mission 131-07 6,0,4,3,0,7    Jones, Ms.   138
    146008 13108      Church/Mission 131-08 7,6,5,4,0,0    Rhoades, Br. Leonard  132
    146009 13109      Church/Mission 131-09 7,0,5,4,0,8    Goedeke, Mr.  136
    146010 13110      Church/Mission 131-10 0,7,1,5,0,3    Rhoades, Br. Leonard  132
    146011 13111      Church/Mission 131-11 2,1,2,1,0,0    Goedeke, Mr.  136
    146012 13112      Church/Mission 131-12 4,3,8,7,0,0    Hubaykah, Ashley  127,132,133,141
    146013 13113      Church/Mission 131-13 0,1,2,1,0,1    Hubaykah, Ashley  107,114,136,139
    146014 13114      Church/Mission 131-14 8,7,0,5,0,3    Goedeke, Mr.  136
    148000 131Lec01   Church/Mission Lec    0,0,0,0,3,0    Rhoades, Br. Leonard  LHN
    150000 131P01     CM 131 Plan           0,0,0,0,0,5    Rhoades, Br. Leonard  RO
    157000 141P01     Relation plan         0,0,7,0,0,0    Rhoades, Br. Leonard  RO
    162001 15101      Relate/Death 151-01   4,3,0,7,6,0    Dobrzycki, Mr.                   110
    162002 15102      Relate/Death 151-02   7,6,0,4,3,0    Dobrzycki, Mr.                   110
    162003 15103      Relate/Death 151-03   0,4,0,8,7,6    Dobrzycki, Mr.                   110
    163000 151Lec01   Death Dying Lec       0,0,6,0,0,0    Dobrzycki, Mr.  230
    166001 16101      Relate/Prayer161-01   5,4,0,0,7,6    Jones, Ms.                       138
    166002 16102      Relate/Prayer161-02   7,6,0,4,0,8    Jones, Ms.                       138
    166003 16103      Relate/Prayer161-03   0,1,0,1,2,1    Jones, Ms.                       138
    166004 16104      Relate/Prayer161-04   0,2,0,2,1,2    Goedeke, Mr.                     136


  
       Schedule Roster   10/03/2016                                             Page -2-

    166005 16105      Relate/Prayer161-05   4,3,0,7,6,0    Goedeke, Mr.                     136
    168500 161Lec01   Faith/Relation Lec    0,0,6,0,0,0    Jones, Ms.   LHN
    169000 161P01     F&P Plan              0,0,0,0,0,5      RO
    170001 17101      Relate/WRel 171-01    2,1,0,1,0,1    Harris, Josh  134
    170002 17102      Relate/WRel 171-02    4,3,0,7,6,0    Rhoades, Br. Leonard             132
    170003 17103      Relate/WRel 171-03    5,0,0,8,7,6    Rhoades, Br. Leonard             132
    170004 17104      Relate/WRel 171-04    6,5,0,0,8,7    Rhoades, Br. Leonard  132
    170005 17105      Relate/WRel 171-05    7,6,0,4,0,8    Harris, Josh                     136,232,242
    170006 17106      Relate/WRel 171-06    0,2,0,2,1,2    Rhoades, Br. Leonard  132
    172500 171Lec01   Wrld Rel Lec 171      0,0,6,0,0,0    Rhoades, Br. Leonard  LHS
    173000 171P01     WR Plan 171           0,0,7,0,0,0      RO
    182001 21101      Algebra I 211-01      1,2,1,0,1,0    Brown, Mrs.                      210,230,231,234
    182002 21102      Algebra I 211-02      3,8,7,6,0,0    Brown, Mrs.  210
    182003 21103      Algebra I 211-03      3,8,0,6,5,0    Miceli, Mr.                      115
    182004 21104      Algebra I 211-04      8,7,0,5,4,0    Brown, Mrs.                      210,234
    182005 21105      Algebra I 211-05      0,7,6,5,4,0    Miceli, Mr.   115
    182201 211H01     Honors Alg I-01       7,6,0,4,3,0    Caldwell, Ms.                    141
    182202 211H02     Honors Alg I-02       8,7,6,0,4,0    Caldwell, Ms.                    141
    182300 211HLec01  Hon Alg Lecture       0,0,0,0,0,1    Caldwell, Ms.    LHS
    182500 211ALec01  Alg I Lec 211A        0,0,0,2,0,0    Miceli, Mr.   LHS
    183001 211A01     Algebra I 211A-01     4,3,8,0,0,5    Miceli, Mr.                      115
    183002 211A02     Algebra I 211A-02     5,4,0,0,7,6    Miceli, Mr.                      115
    183003 211A03     Algebra I 211A-03     7,6,0,0,3,8    Miceli, Mr.                      115
    183500 211AT01    211A Proc             0,0,0,2,0,0    Caldwell, Ms.    LHS
    184000 211Lec01   Alg. I Lec 211        0,0,0,0,0,1    Miceli, Mr.   LHN
    186000 211P01     Alg. I Plan 211       0,0,0,7,0,0    Miceli, Mr.   MO
    190001 21301      Algebra I 213-01      7,6,0,0,3,8    Brown, Mrs.                      210,230,232
    190002 21302      Algebra I 213-02      0,1,2,0,2,1    Chung, Br. John  107
    190003 21303      Algebra I 213-03      5,4,0,0,7,6    Irving, Mrs.  133
    192000 213Lec01   Alg I Lec 213         0,0,0,2,0,0    Irving, Mrs.  230
    194000 213P01     Alg. I Plan 213       0,0,0,0,0,2    Irving, Mrs.  MO
    205001 22201      Geometry 222-01       4,0,8,7,6,0    Lobdell, Mr.  105
    205002 22202      Geometry 222-02       5,0,0,8,7,6    Chung, Br. John  107
    205003 22203      Geometry 222-03       7,0,0,4,3,8    Lobdell, Mr.  105
    205004 22204      Geometry 222-04       0,0,1,2,1,2    Lobdell, Mr.                     105
    205005 22205      Geometry 222-05       0,0,8,7,6,5    Chung, Br. John  107
    206000 222Lec01   Geom Lec 222          0,4,0,0,0,0    Lobdell, Mr.  LHN
    208000 222ALec01  Geometry 222A Lec     8,0,0,0,0,0    Chung, Br. John  LHN
    209001 222A01     Geometry 222A-01      0,7,6,5,4,0    Chung, Br. John                  107
    209002 222A02     Geometry 222A-02      0,5,0,3,8,7    Chung, Br. John                  107
    209003 222A03     Geometry 222A-03      0,6,5,0,3,8    Chung, Br. John                  107
    209500 222AT01    222A Proc             8,0,0,0,0,0    Barczak, Mr.   LHN
    211000 224Lec01   Geom Lec 224          8,0,0,0,0,0    Lobdell, Mr.  LHS
    212001 22401      Geometry 224-01       0,1,2,1,0,1    Lobdell, Mr.                     105
    212002 22402      Geometry 224-02       0,5,0,3,8,7    Lobdell, Mr.                     105
    212003 22403      Geometry 224-03       0,7,6,0,4,3    Lobdell, Mr.                     105
    213200 224T01     224 Proc              8,0,0,0,0,0    Greco, Mr.  LHS
    218001 22601      Hn. Geometry 226-01   5,0,3,8,7,0    Brandell, Mr.                    117
    218002 22602      Hn. Geometry 226-02   8,7,0,5,4,0    Brandell, Mr.                    117
    219000 226Lec01   Hon Geom Lec 226      0,0,0,0,0,1    Brandell, Mr.   230
    226001 23201      Algebra II 232-01     1,2,0,2,1,0    Joseph, Ms.  105,117,141,234
    226002 23202      Algebra II 232-02     2,1,0,1,2,0    Miceli, Mr.   115
    226003 23203      Algebra II 232-03     2,1,0,0,2,1    Joseph, Ms.  105,117,137,141
    226004 23204      Algebra II 232-04     3,8,0,6,0,4    Brandell, Mr.   117
    226005 23205      Algebra II 232-05     7,6,0,0,3,8    Joseph, Ms.                      105,109,111,117
    226006 23206      Algebra II 232-06     0,5,0,3,8,7    Brandell, Mr.   117
    226500 232Lec01   Alg. II Lec 232       0,0,5,0,0,0    Miceli, Mr.   LHN
    227000 232P01     Alg. II Plan 232      0,0,0,0,0,3    Miceli, Mr.   MO
    232001 23401      Algebra II 234-01     2,1,0,0,2,1    Riley, Ms.                       107,137,139
    232002 23402      Algebra II 234-02     0,5,0,3,8,7    Riley, Ms.                       100,125,135,LHN
    232003 23403      Algebra II 234-03     8,7,0,5,4,0    Riley, Ms.                       111,116,125,139
    233000 234Lec01   Alg. II Lec 234       0,0,1,0,0,0    Riley, Ms.   LHN
    234200 234T01     234 Proc              0,0,1,0,0,0    Irving, Mrs.  LHN
    240001 23601      HnAlgebra II 236-01   1,2,0,0,1,2    Brown, Mr.                       111
    240002 23602      HnAlgebra II 236-02   2,0,2,0,2,1    Brown, Mr.                       111
    240003 23603      HnAlgebra II 236-03   8,7,6,0,4,0    Brown, Mr.                       111
    241000 236Lec01   HnAlg II Lec 236      0,0,0,5,0,0    Brown, Mr.   230
    241400 236T01     236 Proc              0,0,0,5,0,0    Medina, Ryan  230
    244001 24101      PreCalculus 241-01    1,2,0,0,1,2    Taddiken, Mr.  125


  
       Schedule Roster   10/03/2016                                             Page -3-

    244002 24102      PreCalculus 241-02    0,1,2,0,2,1    Taddiken, Mr.  125
    244003 24103      PreCalculus 241-03    3,8,7,0,5,0    Joseph, Ms.  105,111
    244004 24104      PreCalculus 241-04    4,3,8,0,6,0    Caldwell, Ms.    141
    244005 24105      PreCalculus 241-05    5,4,3,0,7,0    Taddiken, Mr.                    125
    244006 24106      PreCalculus 241-06    7,6,5,0,3,0    Blake, Mr.   104,112
    246000 241Lec01   PreCalc Lec 241       0,0,0,5,0,0    Taddiken, Mr.  LHN
    247000 241P01     PreCalc Pln  241      0,0,1,0,0,0    Taddiken, Mr.  MO
    250001 24301      PreCalc 243-01        0,0,3,8,7,6    Caldwell, Ms.                    141
    250002 24302      PreCalc 243-02        6,5,0,0,8,7    Caldwell, Ms.    141
    251000 243Lec01   PreCalc 243 Lec       1,0,0,0,0,0    Caldwell, Ms.    141
    252001 24401      FiniteMa/Trig244-01   5,0,3,0,7,6    Joseph, Ms.                      105,117,133,230
    252002 24402      FiniteMa/Trig244-02   6,5,0,0,8,7    Joseph, Ms.                      105,111,115,230
    253200 244T01     244 Proc              0,0,0,1,0,0    Brown, Mr.   230
    254000 244Lec01   FiniteMth Lec244      0,0,0,1,0,0    Joseph, Ms.  230
    258001 24501      Hn PreCalc 245-01     0,1,2,0,2,1    Irving, Mrs.                     133
    258002 24502      Hn PreCalc 245-02     6,5,0,0,8,7    Irving, Mrs.  133
    258003 24503      Hn PreCalc 245-03     8,7,6,0,4,0    Irving, Mrs.  108,117,133
    258004 24504      Hn PreCalc 245-04     0,8,7,0,5,4    Baker, Mr.   106,108,110
    260000 245Lec01   H PreCalc Lec245      0,0,0,5,0,0    Irving, Mrs.  LHS
    262001 25001      Statistics 250-01     0,3,8,7,6,0    Brown, Mr.                       111
    262002 25002      Statistics 250-02     0,6,0,4,3,8    Brown, Mr.                       111
    262200 250Lec01   Stat 250 Lecture      4,0,0,0,0,0    Brown, Mr.   210
    262500 25101      AP Statistics 251     5,4,3,8,7,0    Brown, Mr.                       111
    262800 25801      Diff Eq and Lin Al    3,8,7,6,5,4    Taddiken, Mr.  125
    263000 261Lec01   Hon Calc Lec 261      0,0,0,0,5,0    Riley, Ms.   230
    264001 26101      Hon Calculus 261-01   3,8,7,6,0,0    Riley, Ms.                       107,111,116,141
    264002 26102      Hon Calculus 261-02   4,3,8,7,0,0    Riley, Ms.                       100,107,127,133
    264003 26103      Hon Calculus 261-03   0,4,3,8,0,6    Riley, Ms.                       100,107,127,135
    265700 261T01     261 Proc              0,0,0,0,5,0    Lawless, Br. John  230
    267001 26301      AP Calculus AB 263-01 3,0,7,6,0,4    Irving, Mrs.                     105,117,133,141
    267002 26302      AP Calculus AB 263-02 7,0,5,4,0,8    Irving, Mrs.                     107,117,133
    267200 263Lec01   AP Calc AB Lec        0,0,0,0,5,0    Irving, Mrs.  108
    268000 26501      AP Calculus BC 265    4,3,8,7,6,5    Taddiken, Mr.                    125
    269000 26801      Hn Mltvrb Calculus    3,8,7,6,5,4    Taddiken, Mr.                    125
    271000 27001      Intr Engineering      6,5,0,3,8,7    Stewart, John  121,123,129
    272000 27101      Hon Programming       2,1,2,1,2,0    Brown, Mrs.  213
    292000 28501      AP Computer Prog      5,4,3,8,7,0    Brown, Mrs.  213
    300001 30501      Hon Biology  305-01   1,2,0,12,0,3   Moeser, Mr.                      121,129,131
    300002 30502      Hon Biology  305-02   7,8,0,0,23,8   Robertson, Mrs.                  125,127,131
    300003 30503      Hon Biology  305-03   3,8,0,6,45,0   Moeser, Mr.                      121,131
    300004 30504      Hon Biology  305-04   6,5,0,3,0,67   Moeser, Mr.                      121,125,131
    303000 305Lec01   Hon. Bio Lec          0,0,1,0,0,0    Robertson, Mrs.  LHS
    303500 305P01     Hon Bio 305 Plan      0,0,3,0,0,0    Robertson, Mrs.
    314001 31201      Biology 312-01        56,3,8,0,0,0   Robertson, Mrs.  113,129,131
    314002 31202      Biology 312-02        67,2,1,0,0,0   Warren, Mrs.  127,129
    314003 31203      Biology 312-03        0,34,8,0,6,0   Warren, Mrs.                     127
    314004 31204      Biology 312-04        8,0,34,0,0,3   Cvach, Ms.  121,129,131
    314005 31205      Biology 312-05        1,0,0,0,1,23   Warren, Mrs.  127,129,131
    314006 31206      Biology 312-06        8,67,6,0,0,0   Robertson, Mrs.                  125,127,129
    314007 31207      Biology 312-07        0,0,4,0,8,23   Robertson, Mrs.                  127,131,133
    315001 312A01     Biology 312A-01       0,67,0,5,3,0   Bondyra, Mrs.                    113,131
    315002 312A02     Biology 312A-02       1,0,56,0,1,0   Bondyra, Mrs.                    113,131
    315003 312A03     Biology 312A-03       4,0,0,7,45,0   Bondyra, Mrs.                    113,127
    316000 312ALec01  Biology Lec 312A      0,0,0,0,0,2    Bondyra, Mrs.  LHN
    320000 312Lec01   Biology Lec. 312      0,0,0,1,0,0    Warren, Mrs.  LHN
    320200 312P0101   312 Plan              0,1,0,0,0,0    Warren, Mrs.
    332001 31401      Biology 314-01        1,23,1,0,0,0   Cvach, Ms.                       129,131,133
    332002 31402      Biology 314-02        0,6,0,56,3,0   Cvach, Ms.                       121,131,133
    332003 31403      Biology 314-03        3,0,7,78,0,0   Cvach, Ms.                       131,133
    336000 314Lec01   Biology Lec 314       0,0,0,0,0,5    Cvach, Ms.  LHN
    336500 314T01     314 Proc              0,0,0,0,0,5    Bondyra, Mrs.  LHN
    361500 326Lec01   Chem Lec 10 326       0,0,7,0,0,4    Robertson, Mrs.  LHN
    362001 32601      Chemistry 10 326-01   12,0,0,5,4,0   Robertson, Mrs.                  119,129,133
    362002 32602      Chemistry 10 326-02   2,12,0,1,0,0   Bondyra, Mrs.                    113,119
    362003 32603      Chemistry 10 326-03   78,0,0,8,8,0   Bondyra, Mrs.                    113,121
    362004 32604      Chemistry 10 326-04   1,56,0,0,8,0   Hoos, Mr.                        117,119,123
    362005 32605      Chemistry 10 326-05   0,2,0,23,1,0   Robertson, Mrs.                  113,119,123
    362006 32606      Chemistry 10 326-06   0,3,0,78,6,0   Hoos, Mr.                        121,123
    362007 32607      Chemistry 10 326-07   2,0,0,1,12,0   Hoos, Mr.                        117,119,123


  
       Schedule Roster   10/03/2016                                             Page -4-

    362008 32608      Chemistry 10 326-08   45,7,0,5,0,0   Hoos, Mr.                        119,123
    362300 326P01     326 Chem Plan         0,0,0,0,0,1    Robertson, Mrs.
    362500 327Lec01   Chem Lec 10 327       0,2,0,2,0,0    Motsay, Mr.   LHN
    363001 32701      Chemistry 10 327-01   1,0,1,0,0,12   Motsay, Mr.                      119,123
    363002 32702      Chemistry 10 327-02   7,0,45,0,0,8   Motsay, Mr.                      119,123
    363003 32703      Chemistry 10 327-03   6,0,0,0,34,3   Motsay, Mr.                      119,123
    363004 32704      Chemistry 10 327-04   0,0,3,0,4,56   Hoos, Mr.                        119,123,129
    366000 327P01     Chem 327 Plan         0,0,6,0,0,0    Motsay, Mr.
    390001 33501      Hn Chemistry 335-01   0,34,8,0,0,5   Motsay, Mr.                      119,123
    390002 33502      Hn Chemistry 335-02   0,0,3,78,0,6   Motsay, Mr.                      119,123
    391000 335Lec01   Hn Chem Lec 335       4,0,0,0,6,0    Motsay, Mr.   230
    394001 34101      Physics 341-01        45,0,8,7,6,0   Connor, Dr.                      109,113,121,129
    394002 34102      Physics 341-02        78,5,4,0,8,0   Connor, Dr.                      109,113,129
    394003 34103      Physics 341-03        2,34,0,1,2,0   Connor, Dr.                      109,113,129
    394004 34104      Physics 341-04        0,8,23,5,5,0   Connor, Dr.                      109,121,129
    394005 34105      Physics 341-05        1,0,45,2,1,0   Stewart, John  109,121,129
    394006 34106      Physics 341-06        3,8,78,0,5,0   Stewart, John  113,121,123
    394007 34107      Physics 341-07        4,3,0,78,6,0   Stewart, John  109,113,123,129
    398000 341Lec01   Physics Lec 341       0,0,0,0,0,8    Stewart, John  LHN
    399500 341P01     341 Phys Plan         0,0,0,0,0,6    Stewart, John
    404001 34301      Physics 343-01        0,1,2,0,2,1    Moeser, Mr.                      121,123,129
    404002 34302      Physics 343-02        0,3,8,7,0,5    Moeser, Mr.                      121,123,131
    404003 34303      Physics 343-03        0,7,2,5,0,3    Stewart, John                    113,121,123
    404004 34304      Physics 343-04        0,1,0,1,2,1    Stewart, John                    113,121,123,129
    407000 343Lec01   Physics Lec 343       5,0,0,0,0,0    Stewart, John  LHN
    410000 344Lec01   H Physics Lec344      0,0,0,7,0,0    Ward, Mrs.  230
    412001 34401      Hon Physics  344-01   3,8,78,0,0,4   Ward, Mrs.                       109,113
    412002 34402      Hon Physics  344-02   4,3,56,0,0,5   Ward, Mrs.                       107,109,111,113
    415001 345I01     AP Physics I-01       0,7,6,23,0,0   Connor, Dr.                      109,113,129
    415002 345I02     AP Physics I-02       0,0,7,6,0,45   Connor, Dr.                      109,113
    418000 345ILec01  AP I Lecture          1,0,0,0,1,0    Connor, Dr.   230
    419200 345IT101   345I Proc             1,0,0,0,0,0    Dobrzycki, Mr.  230
    419300 345IT201   345I Proc             0,0,0,0,1,0    Motsay, Mr.   230
    420000 34501      AP Physics II         6,5,4,3,0,67   Ward, Mrs.  109,115
    423501 34701      Marine Biology-01     1,2,0,2,1,2    Haire, Mr.                       127,129,131
    423502 34702      Marine Biology-02     2,1,2,0,2,1    Haire, Mr.                       109,127
    425001 34801      Earth Sci 348-01      2,0,2,0,2,1    Cvach, Ms.                       121,129,133
    425002 34802      Earth Sci 348-02      5,0,0,2,1,2    Cvach, Ms.                       121,125,129
    426000 348Lec01   Earth Sci Lec         0,4,0,0,0,0    Cvach, Ms.  230
    426700 348T01     348 Proc              0,4,0,0,0,0    Fitzmaurice, Mr.   230
    435500 35001      Anatomy & Phys        6,45,4,3,0,7   Bondyra, Mrs.                    113,131
    436000 35101      Hon Anatomy 351       34,0,4,3,8,7   Warren, Mrs.  127,131
    444000 36501      AP Biology 365        78,6,5,0,3,8   Moeser, Mr.   121,123,125,131
    448000 37501      AP Chemistry          78,8,5,4,0,8   Hoos, Mr.  119,123,129
    449001 38001      AP Enviro Sci-01      0,8,7,6,0,56   Warren, Mrs.                     127,131
    449002 38002      AP Enviro Sci-02      0,6,5,4,23,0   Warren, Mrs.                     125,127
    450000 380Lec01   AP Envrnmntl Lec      8,0,0,0,0,0    Warren, Mrs.  230
    451000 39501      Forensic Science      2,1,2,1,0,1    Ward, Mrs.  109,113
    452001 41101      World Hist I 411-01   1,0,1,2,0,0    Siegner, Aaron  107,110
    452002 41102      World Hist I 411-02   1,0,1,0,0,2    Aquilla, Kelly                   107,112,115
    452003 41103      World Hist I 411-03   8,0,0,0,4,3    Aquilla, Kelly                   104,108,115
    452004 41104      World Hist I 411-04   0,0,8,7,0,5    Siegner, Aaron                   100,112,114
    452005 41105      World Hist I 411-05   8,0,0,0,4,3    Miller, Ben  108,112
    452006 41106      World Hist I 411-06   6,0,4,0,0,7    Aquilla, Kelly  104,112
    452007 41107      World Hist I 411-07   7,0,0,4,0,8    Miller, Ben                      106,112,230
    452008 41108      World Hist I 411-08   5,0,3,0,0,6    Miller, Ben                      106,112
    452009 41109      World Hist I 411-09   0,0,8,7,0,5    Miller, Ben                      108,110,117
    454000 411Lec01   Wrld Hist I Lec       0,1,0,0,2,0    Siegner, Aaron  LHN
    456000 411P01     Wrld Hst 411 Pln      0,0,0,0,8,0    Siegner, Aaron
    456200 411T01     411 Proc              0,1,0,0,0,0    Bauersfeld, Mr.  LHN
    460001 41301      World Hist I 413-01   0,5,4,0,0,7    Miller, Ben  106,110
    460002 41302      World Hist I 413-02   0,7,0,0,4,3    Passaro, Mr.                     100
    460003 41303      World Hist I 413-03   0,0,3,0,7,6    Passaro, Mr.  100
    462000 413Lec01   Wrld Hist I Lec       6,0,0,3,0,0    Passaro, Mr.  230
    463000 413P01     World 413 Plan        0,3,0,0,0,0    Passaro, Mr.
    466001 41501      Hon Wrld Hist I-01    3,0,0,6,5,0    Passaro, Mr.                     100
    466002 41502      Hon Wrld Hist I-02    7,6,0,4,0,0    Passaro, Mr.                     100
    467000 415Lec01   HnWrld Hst I Lec      0,0,7,0,0,4    Passaro, Mr.  230
    468001 42101      Wrld Hist II 421-01   2,0,2,0,0,1    Marchsteiner, Mr.  110,134,232


  
       Schedule Roster   10/03/2016                                             Page -5-

    468002 42102      Wrld Hist II 421-02   4,0,8,7,0,0    Marchsteiner, Mr.  104,134
    468003 42103      Wrld Hist II 421-03   6,0,0,3,0,7    Marchsteiner, Mr.  110,111,241
    468004 42104      Wrld Hist II 421-04   7,0,5,0,0,8    Fan, Mr.                         210
    468005 42105      Wrld Hist II 421-05   0,0,2,1,0,1    Fan, Mr.  210
    468006 42106      Wrld Hist II 421-06   0,0,4,3,0,7    Fan, Mr.  210
    468007 42107      Wrld Hist II 421-07   0,0,8,7,0,5    Fan, Mr.  210
    470000 421Lec01   Wrld Hist II Lec      0,8,0,0,5,0    Marchsteiner, Mr.  LHN
    472000 421P01     WHist II 421 Pln      0,0,0,0,2,0    Marchsteiner, Mr.
    476001 42301      Wrld Hist II 423-01   2,0,0,1,0,1    Bauersfeld, Mr.                  112
    476002 42302      Wrld Hist II 423-02   3,0,7,0,0,4    Bauersfeld, Mr.                  112
    476003 42303      Wrld Hist II 423-03   4,0,0,7,0,5    Bauersfeld, Mr.                  112
    477000 423Lec01   Wrld Hist II Lec      0,3,0,0,2,0    Bauersfeld, Mr.  230
    480001 42501      AP Wrld Hist 425-01   5,0,0,8,7,0    Fan, Mr.                         210
    480002 42502      AP Wrld Hist 425-02   6,5,0,0,8,0    Fan, Mr.                         210
    481000 425Lec01   AP World His Lec      0,0,1,0,0,2    Fan, Mr.  210
    482001 42601      Hon World II-01       2,0,2,0,2,1    Passaro, Mr.                     100
    482002 42602      Hon World II-02       4,0,8,7,6,0    Passaro, Mr.                     100
    482003 42603      Hon World II-03       0,0,1,2,1,2    Passaro, Mr.                     100
    482200 426T01     426 Proc              0,8,0,0,0,0    Siegner, Aaron  LHS
    483000 426Lec01   Hon Wrld II Lec       0,8,0,0,0,0    Passaro, Mr.  LHS
    484001 43101      U.S. History 431-01   0,2,1,0,1,0    Robinson, Mr.  106
    484002 43102      U.S. History 431-02   0,2,1,0,0,2    Bauersfeld, Mr.  112
    484003 43103      U.S. History 431-03   0,5,4,0,8,0    Bauersfeld, Mr.                  112
    484004 43104      U.S. History 431-04   0,7,0,0,4,3    Robinson, Mr.  106
    484005 43105      U.S. History 431-05   0,8,7,0,0,4    Aquilla, Kelly  100,106,115
    484006 43106      U.S. History 431-06   0,0,3,0,7,6    Bauersfeld, Mr.                  112
    484007 43107      U.S. History 431-07   0,4,7,0,5,0    Robinson, Mr.                    106
    486000 431Lec01   US Hist Lec 431       7,0,0,4,0,0    Robinson, Mr.  LHN
    488000 431P01     US Hist 431 Pln       0,6,0,0,0,0    Robinson, Mr.
    492001 43301      U.S. History 433-01   3,0,0,6,5,0    Aquilla, Kelly                   104
    492002 43302      U.S. History 433-02   4,3,0,7,0,0    Aquilla, Kelly                   104,105,108
    492003 43303      U.S. History 433-03   0,2,0,2,1,0    Aquilla, Kelly                   105,107,116
    494000 433Lec01   US Hist Lec 433       0,0,3,0,0,6    Aquilla, Kelly  LHN
    495200 433T01     433 Proc              0,0,3,0,0,6    Robinson, Mr.  LHN
    496001 43501      AP US Hist. 435-01    0,1,0,0,2,1    Miserendino, Mr.                 110,112,210
    496002 43502      AP US Hist. 435-02    0,2,0,2,0,2    Miserendino, Mr.                 110,112,210
    496003 43503      AP US Hist. 435-03    0,3,0,0,6,5    Miserendino, Mr.                 110,112,210
    496501 43601      Hnrs US History-01    1,2,0,2,1,0    Miller, Ben                      100,112,235
    496502 43602      Hnrs US History-02    0,8,7,6,5,0    Miller, Ben                      100,107,110,112
    497200 436T01     436 Proc              0,0,0,0,0,2    Siegner, Aaron  LHS
    497500 436Lec01   Hon 436 US Lec        0,0,0,0,0,2    Miller, Ben  LHS
    498000 435Lec01   AP US His. Lec        2,0,1,0,0,0    Miserendino, Mr.  230
    500001 44101      Am. Govt  441-01      5,0,3,8,0,0    Radebaugh, Mr.                   108
    500002 44102      Am. Govt  441-02      6,0,0,3,0,7    Radebaugh, Mr.                   108
    500003 44103      Am. Govt  441-03      7,0,5,4,0,0    Radebaugh, Mr.                   108
    502000 441Lec01   Am Govt Lec 441       0,7,0,0,4,0    Radebaugh, Mr.  LHN
    506001 44201      Am.Govt. 442-01       5,0,3,8,0,0    Siegner, Aaron                   106,110,112
    506002 44202      Am.Govt. 442-02       6,0,0,3,0,7    Siegner, Aaron                   106,112
    506003 44203      Am.Govt. 442-03       7,0,5,4,0,0    Siegner, Aaron                   106
    506200 442T01     442 Proc              0,7,0,0,4,0    Bauersfeld, Mr.  LHS
    508000 442Lec01   Am Govt Lec 442       0,7,0,0,4,0    Siegner, Aaron  LHS
    512001 44301      Am.  Govt. 443-01     0,0,2,0,5,1    Stembler, Mr.   105,110,115
    512002 44302      Am.  Govt. 443-02     0,6,0,0,3,8    Siegner, Aaron                   106,112
    513000 443Lec01   Am. Govt Lec 443      3,0,0,6,0,0    Stembler, Mr.   108
    516000 44501      AP Government         0,2,1,2,1,2    Radebaugh, Mr.  107,108
    524000 45501      AP European 455       3,7,7,6,0,4    Marchsteiner, Mr.  104,110,134,mcm
    526001 46501      AP Economics 465-01   2,0,2,0,0,1    Willenborg, Mrs.                 104
    526002 46502      AP Economics 465-02   0,0,1,2,0,2    Willenborg, Mrs.                 104
    526003 46503      AP Economics 465-03   0,0,5,4,0,8    Willenborg, Mrs.                 104
    526500 465Lec01   AP Economics Lec      0,7,0,0,4,0    Willenborg, Mrs.  230
    526700 465T101    465 Proc              0,0,0,0,4,0    Cvach, Ms.  230
    526800 465T201    465 Proc              0,7,0,0,0,0    Fan, Mr.  230
    527001 47001      AP Psychology-01      0,1,2,1,0,1    Radebaugh, Mr.                   108
    527002 47002      AP Psychology-02      0,3,8,7,6,0    Radebaugh, Mr.                   108
    527500 470Lec01   AP Psych Lec          1,0,0,0,0,0    Radebaugh, Mr.  108
    528001 47101      Psychology 471-01     1,0,0,2,0,2    Robinson, Mr.                    106
    528002 47102      Psychology 471-02     4,0,8,7,0,0    Robinson, Mr.                    106
    528003 47103      Psychology 471-03     8,0,0,6,0,5    Robinson, Mr.                    106
    530000 471Lec01   Psychology Lec        0,3,0,0,6,0    Robinson, Mr.  LHN


  
       Schedule Roster   10/03/2016                                             Page -6-

    533000 47501      AP Human Geography    0,1,2,1,2,1    Robinson, Mr.  106
    534001 47701      Leadership Sem-01     2,0,0,6,0,4    Parisi, Mr.                      104,106,112
    534002 47702      Leadership Sem-02     0,7,0,0,4,3    Parisi, Mr.                      104,114
    535000 47901      Personal Finance      8,0,0,0,6,0    Fan, Mr.  210
    536001 48101      Business Mgmt.-01     0,1,0,1,2,0    Willenborg, Mrs.  104
    536002 48102      Business Mgmt.-02     1,2,0,0,1,0    Willenborg, Mrs.                 104
    536003 48103      Business Mgmt.-03     0,7,0,5,4,0    Bengel, Mr.  104,110
    538000 481Lec01   Business Lec          0,0,7,0,0,5    Willenborg, Mrs.  LHS
    542001 48301      Accounting  483-01    5,0,3,8,7,0    Willenborg, Mrs.                 104,211
    542002 48302      Accounting  483-02    6,5,0,3,8,0    Willenborg, Mrs.                 104,211
    543000 483Lec01   Accounting Lec        0,0,0,0,0,4    Willenborg, Mrs.  108
    550000 48601      Princip of Market     6,0,4,0,8,0    Werner, Ms.  100,104,105
    564001 49001      Comp. App I 490-01    1,0,0,0,0,0    Knight, Mr.                      212
    564002 49002      Comp. App I 490-02    4,0,0,0,0,0    Knight, Mr.                      212
    564003 49003      Comp. App I 490-03    6,0,0,0,0,0    Knight, Mr.                      212
    564004 49004      Comp. App I 490-04    8,0,0,0,0,0    Knight, Mr.                      212
    564005 49005      Comp. App I 490-05    0,2,0,0,0,0    Knight, Mr.                      212
    564006 49006      Comp. App I 490-06    0,4,0,0,0,0    Knight, Mr.                      212
    564007 49007      Comp. App I 490-07    0,5,0,0,0,0    Knight, Mr.                      212
    565001 490A01     Comp. App I 490A-01   1,0,0,0,0,0    Johnson, Mrs.                    241
    565002 490A02     Comp. App I 490A-02   4,0,0,0,0,0    Johnson, Mrs.                    133
    565003 490A03     Comp. App I 490A-03   6,0,0,0,0,0    Johnson, Mrs.                    125
    565004 490A04     Comp. App I 490A-04   8,0,0,0,0,0    Johnson, Mrs.                    241
    565005 490A05     Comp. App I 490A-05   0,2,0,0,0,0    Johnson, Mrs.                    115
    565006 490A06     Comp. App I 490A-06   0,4,0,0,0,0    Johnson, Mrs.                    232
    565007 490A07     Comp. App I 490A-07   0,5,0,0,0,0    Johnson, Mrs.                    242
    570001 49301      Comp. App I 493-01    0,0,1,0,0,0    Knight, Mr.                      212
    570002 49302      Comp. App I 493-02    0,0,4,0,0,0    Knight, Mr.                      212
    570003 49303      Comp. App I 493-03    0,0,8,0,0,0    Knight, Mr.                      212
    570004 49304      Comp. App I 493-04    0,0,0,2,0,0    Knight, Mr.                      212
    570005 49305      Comp. App I 493-05    0,0,0,3,0,0    Knight, Mr.                      212
    570006 49306      Comp. App I 493-06    0,0,0,6,0,0    Knight, Mr.                      212
    570007 49307      Comp. App I 493-07    0,0,0,8,0,0    Knight, Mr.                      212
    571001 493A01     Comp. App I 493A-01   0,0,1,0,0,0    Johnson, Mrs.                    232
    571002 493A02     Comp. App I 493A-02   0,0,4,0,0,0    Johnson, Mrs.                    230
    571003 493A03     Comp. App I 493A-03   0,0,8,0,0,0    Johnson, Mrs.                    241
    571004 493A04     Comp. App I 493A-04   0,0,0,2,0,0    Johnson, Mrs.                    129
    571005 493A05     Comp. App I 493A-05   0,0,0,3,0,0    Johnson, Mrs.                    132
    571006 493A06     Comp. App I 493A-06   0,0,0,6,0,0    Johnson, Mrs.                    231
    571007 493A07     Comp. App I 493A-07   0,0,0,8,0,0    Johnson, Mrs.                    133
    572001 49401      Comp. App I  494-01   0,0,0,0,2,0    Knight, Mr.                      212
    572002 49402      Comp. App I  494-02   0,0,0,0,6,0    Knight, Mr.                      212
    572003 49403      Comp. App I  494-03   0,0,0,0,7,0    Knight, Mr.                      212
    572004 49404      Comp. App I  494-04   0,0,0,0,8,0    Knight, Mr.                      212
    572005 49405      Comp. App I  494-05   0,0,0,0,0,1    Knight, Mr.                      212
    572006 49406      Comp. App I  494-06   0,0,0,0,0,2    Knight, Mr.                      212
    572007 49407      Comp. App I  494-07   0,0,0,0,0,7    Knight, Mr.                      212
    573001 494A01     Comp. App I 494A-01   0,0,0,0,2,0    Johnson, Mrs.                    210
    573002 494A02     Comp. App I 494A-02   0,0,0,0,6,0    Johnson, Mrs.                    109
    573003 494A03     Comp. App I 494A-03   0,0,0,0,7,0    Johnson, Mrs.                    113
    573004 494A04     Comp. App I 494A-04   0,0,0,0,8,0    Johnson, Mrs.                    111
    573005 494A05     Comp. App I 494A-05   0,0,0,0,0,1    Johnson, Mrs.                    231
    573006 494A06     Comp. App I 494A-06   0,0,0,0,0,2    Johnson, Mrs.                    133
    573007 494A07     Comp. App I 494A-07   0,0,0,0,0,7    Johnson, Mrs.                    123
    576001 51101      English I 511-01      5,4,0,8,7,0    Davis, Mr.                       139,231,234,235
    576002 51102      English I 511-02      1,2,0,0,1,2    Davis, Mr.  232,235
    576003 51103      English I 511-03      0,5,0,3,8,7    Davis, Mr.                       231,234,242
    576004 51104      English I 511-04      3,8,0,0,5,4    Davis, Mr.                       231,235
    576005 51105      English I 511-05      4,3,0,7,0,5    McMullen, Mr.  232
    576006 51106      English I 511-06      5,4,0,8,0,6    Sundell, Mr.   241
    576007 51107      English I 511-07      4,3,0,7,0,5    Hallman, Mr.                     133,230,241
    576008 51108      English I 511-08      7,6,0,4,0,8    Sundell, Mr.                     241
    576009 51109      English I 511-09      8,7,0,0,4,3    Davis, Mr.  231,235
    576010 51110      English I 511-10      0,2,0,2,1,2    McMullen, Mr.  232
    576011 51111      English I 511-11      0,5,0,3,8,7    Hallman, Mr.  133,230,232,242
    578000 511Lec01   English I Lec.        0,0,2,0,0,0    Sundell, Mr.   LHN
    580000 511P01     Eng. I 511 Plan       0,0,5,0,0,0    Sundell, Mr.
    584001 51301      English I 513-01      1,2,1,0,0,2    Greco, Mr.                       234
    584002 51302      English I 513-02      4,3,8,7,0,0    Greco, Mr.                       234


  
       Schedule Roster   10/03/2016                                             Page -7-

    584003 51303      English I 513-03      7,0,5,4,0,8    Greco, Mr.                       234
    584004 51304      English I 513-04      0,1,2,1,0,1    Greco, Mr.                       234
    586000 513Lec01   Eng I Lec 513         0,0,0,0,1,0    Greco, Mr.  LHS
    587200 513T01     513 Proc              0,0,0,0,1,0    Johnson, Mrs.  LHS
    588000 515Lec01   Hn Eng  Lec 515       0,0,2,0,0,0    Ford, Mr.  230
    590001 51501      Honors English I-01   3,8,0,6,5,0    Ford, Mr.                        141,231,241,242
    590002 51502      Honors English I-02   4,0,0,7,6,5    Ford, Mr.                        231,234,241,242
    590003 51503      Honors English I-03   0,4,0,8,7,6    Ford, Mr.                        135,234
    594001 52101      English II 521-01     0,6,5,4,0,8    Zinkand, Mr.                     242
    594002 52102      English II 521-02     0,1,2,1,0,1    Zinkand, Mr.                     242
    594003 52103      English II 521-03     0,1,0,1,2,1    Hattrup, Mr.  232,241
    594004 52104      English II 521-04     0,2,0,2,1,2    Alsedek, Mr.  231
    594005 52105      English II 521-05     0,6,5,4,0,8    Hattrup, Mr.                     139,231,241
    594006 52106      English II 521-06     0,7,6,0,4,3    Mitchell, Mr.   108,116
    594007 52107      English II 521-07     0,4,3,0,7,6    Zinkand, Mr.   242
    594008 52108      English II 521-08     0,3,8,7,0,5    Alsedek, Mr.                     231
    596000 521Lec01   Engl II Lec 521       3,0,0,0,0,0    Zinkand, Mr.   LHN
    598000 521P01     Eng. 521 Plan         0,0,0,6,0,0    Zinkand, Mr.   EO
    602001 52301      English II 523-01     2,1,1,1,0,1    Hooper, Mr.                      235
    602002 52302      English II 523-02     5,4,3,8,0,6    Hooper, Mr.                      235
    602003 52303      English II 523-03     7,8,5,4,0,8    Hooper, Mr.                      235
    602004 52304      English II 523-04     7,6,5,4,0,8    Knight, Mr.                      212
    604000 523Lec01   Eng II Lec 523        0,0,0,0,1,0    Knight, Mr.  LHN
    604500 523P01     Plan 523              0,0,0,0,0,3    Knight, Mr.  EO
    606001 52501      HnEnglish II 525-01   0,7,6,0,4,3    Greco, Mr.                       234
    606002 52502      HnEnglish II 525-02   0,8,7,0,5,4    Greco, Mr.                       234
    607000 525Lec01   Hn. Eng II Lec        3,0,0,0,0,0    Greco, Mr.  230
    608001 53101      English III 531-01    1,0,0,2,1,2    Hallman, Mr.                     133,139,141
    608002 53102      English III 531-02    2,0,0,1,2,1    Hallman, Mr.                     133,139,141
    608003 53103      English III 531-03    4,0,8,7,0,5    Hooper, Mr.   235
    608004 53104      English III 531-04    5,0,3,8,7,0    McMullen, Mr.                    232
    608005 53105      English III 531-05    5,0,3,0,7,6    Hallman, Mr.  139,210,230,241
    608006 53106      English III 531-06    6,0,4,0,8,7    Hooper, Mr.   235
    608007 53107      English III 531-07    6,0,0,3,8,7    McMullen, Mr.  232
    608008 53108      English III 531-08    8,0,6,0,4,3    McMullen, Mr.  232
    608009 53109      English III 531-09    3,0,7,6,5,0    McMullen, Mr.  232
    610000 531Lec01   English III Lec       0,6,0,0,0,0    McMullen, Mr.  LHN
    612000 531P01     Eng. III 531 Pln      0,0,0,5,0,0    McMullen, Mr.
    616001 53301      English III 533-01    1,2,0,0,1,2    Zinkand, Mr.                     242
    616002 53302      English III 533-02    8,7,0,0,4,3    Zinkand, Mr.                     242
    616003 53303      English III 533-03    0,8,7,0,5,4    Zinkand, Mr.                     242
    617000 533T01     533 Proct             0,0,0,8,0,0    Barczak, Mr.   230
    618000 533Lec01   English III Lec       0,0,0,8,0,0    Zinkand, Mr.   230
    620001 53501      Hon English III-01    5,0,3,8,7,0    Alsedek, Mr.                     231
    620002 53502      Hon English III-02    6,0,4,0,8,7    Alsedek, Mr.                     231
    620003 53503      Hon English III-03    8,0,6,0,4,3    Alsedek, Mr.                     231
    621000 535Lec01   Hon. Eng III Lec      0,6,0,0,0,0    Alsedek, Mr.  230
    622001 54101      English IV  541-01    2,1,0,1,2,0    Sundell, Mr.   241
    622002 54102      English IV  541-02    3,8,7,0,5,0    Sundell, Mr.   241
    622003 54103      English IV  541-03    2,1,2,1,0,0    Johnson, Mrs.  117,232,242
    622004 54104      English IV  541-04    0,8,7,6,5,0    Hallman, Mr.  130,133,231,232
    622005 54105      English IV  541-05    4,3,8,7,0,0    Hattrup, Mr.                     115,231,232,235
    622006 54106      English IV  541-06    5,0,3,8,7,0    Harris, Josh                     132,234,242
    622007 54107      English IV  541-07    6,0,4,3,8,0    Sundell, Mr.   241
    622008 54108      English IV  541-08    0,2,1,2,1,0    Sundell, Mr.                     241
    622009 54109      English IV  541-09    0,3,8,7,6,0    Harris, Josh  134,234,242
    624000 541Lec01   Eng. IV Lec 541       0,0,0,0,0,3    Sundell, Mr.   LHN
    626000 541P01     Eng. 541 Plan         0,7,0,0,0,0    Sundell, Mr.   EO
    630001 54301      English IV 543-01     1,0,1,0,1,2    Hattrup, Mr.                     241,mcm
    630002 54302      English IV 543-02     6,0,4,0,8,7    Hattrup, Mr.                     234,mcm
    630003 54303      English IV 543-03     0,0,3,8,7,6    Hattrup, Mr.                     115,234,mcm
    632000 543Lec01   English 543 Lec       0,8,0,0,0,0    Hattrup, Mr.  230
    636000 54501      AP English            2,1,2,1,0,1    Alsedek, Mr.  mcm
    640000 565Lec01   Hn Wrld Lit Lec       0,0,0,0,0,3    Ford, Mr.  230
    641001 56501      Hn World Lit565-01    1,2,1,0,1,0    Ford, Mr.                        133,139,231,242
    641002 56502      Hn World Lit565-02    6,5,4,3,0,0    Ford, Mr.                        107,232,234,242
    641003 56503      Hn World Lit565-03    7,6,5,4,0,0    Ford, Mr.                        107,231,232,234
    641300 56601      African Am Lit        2,1,0,0,2,0    Davis, Mr.  230,232,235
    650001 60001      Hon Latin 600-01      1,2,0,2,1,0    Marchsteiner, Mr.                107,110,111,116


  
       Schedule Roster   10/03/2016                                             Page -8-

    650002 60002      Hon Latin 600-02      0,4,3,8,7,0    Marchsteiner, Mr.                104,108,134
    651000 600L01     Honors Latin I Lec    0,0,0,0,0,2    Marchsteiner, Mr.  230
    652000 61001      Latin I 610           5,0,3,8,7,6    Farrelly, Mr.   130
    656000 61201      French I 612          5,0,3,8,7,6    d'Ecclesia, Ms.  118,122,125,135
    658000 61401      German I 614          6,5,4,3,8,7    Filberg, Br. Charles             118
    658200 614H01     Hnrs German I         6,5,4,3,8,7    Filberg, Br. Charles  118
    660001 61601      Hon Spanish I-01      4,3,8,0,6,5    Carbine, Mr.                     122
    660002 61602      Hon Spanish I-02      6,5,4,0,8,7    Carbine, Mr.                     122
    662001 61701      Spanish I 617-01      3,8,7,6,0,4    Goudou, Mr.                      135
    662002 61702      Spanish I 617-02      3,8,7,0,5,4    Giordano, Mrs.  137
    662003 61703      Spanish I 617-03      5,4,3,0,7,6    Giordano, Mrs.                   137
    662004 61704      Spanish I 617-04      6,5,4,0,8,7    Goudou, Mr.  135
    662005 61705      Spanish I 617-05      7,6,0,4,3,8    Goudou, Mr.                      135
    664000 617P01     Spanish I Plan        0,0,0,8,0,0    Goudou, Mr.  LO
    666001 61801      Spanish I 618-01      3,8,7,6,5,0    Kines, Br. Joe                   107,111,116
    666002 61802      Spanish I 618-02      1,2,1,0,2,2    Freeman, Mr.                     116
    666003 61803      Spanish I 618-03      5,4,3,0,7,6    Kines, Br. Joe                   104,105
    666004 61804      Spanish I 618-04      7,6,5,4,0,8    Kines, Br. Joe  105,110,114,120
    667000 618P01     Span 618 Plan         0,0,6,0,0,0    Kines, Br. Joe
    668000 62001      Latin II 620          7,6,0,4,3,8    Farrelly, Mr.   130
    668500 62501      Honors Latin II       7,6,5,4,3,8    Farrelly, Mr.   130
    670000 62101      Honors French II      6,5,4,3,8,7    d'Ecclesia, Ms.  117,125,138,141
    672000 62201      French II 622         4,3,8,7,6,0    d'Ecclesia, Ms.  114,122,139
    674000 62301      Hon. German II        4,3,8,7,6,5    Filberg, Br. Charles  118
    676000 62401      German II 624         4,3,8,7,0,5    Filberg, Br. Charles  118
    678001 62601      Hon Spanish II-01     4,0,8,7,6,5    Giordano, Mrs.                   137
    678002 62602      Hon Spanish II-02     7,6,5,4,3,0    Giordano, Mrs.                   137
    680001 62701      Spanish II 627-01     3,8,7,6,0,4    Carbine, Mr.                     122
    680002 62702      Spanish II 627-02     5,0,3,8,7,6    Maly, Ms.  111,115,124,135,139
    680003 62703      Spanish II 627-03     7,6,5,4,3,0    Maly, Ms.  108,114,115,120,139
    680004 62704      Spanish II 627-04     7,6,0,4,3,8    Carbine, Mr.                     122
    680005 62705      Spanish II 627-05     8,7,6,0,4,3    Carbine, Mr.                     122
    680006 62706      Spanish II 627-06     0,1,2,1,2,1    Carbine, Mr.                     122
    682000 627P01     Span. II 627 Pln      0,0,0,3,0,0    Maly, Ms.
    683000 628P01     Spanish Pln 628       0,7,0,0,0,0    Maly, Ms.
    684001 62801      Spanish II 628-01     2,1,2,1,0,1    Freeman, Mr.                     116
    684002 62802      Spanish II 628-02     4,0,8,7,6,5    Freeman, Mr.                     116
    684003 62803      Spanish II 628-03     6,5,0,3,8,7    Freeman, Mr.                     116
    684004 62804      Spanish II 628-04     3,8,7,0,5,4    Maly, Ms.  111,120,138,139
    688000 63001      Latin III 630         4,3,8,7,6,0    Farrelly, Mr.   130
    690000 63101      Hon. French III       8,7,6,0,4,3    Goudou, Mr.  135
    692000 63201      French III 632        8,7,6,0,4,3    Goudou, Mr.  135
    694000 63301      Hon. German III       5,1,2,1,2,1    Filberg, Br. Charles  118
    696000 63401      German III            0,1,2,1,2,1    Filberg, Br. Charles  118
    696501 63501      Hn Latin III-01       6,5,4,0,8,7    Farrelly, Mr.                    130
    696502 63502      Hn Latin III-02       0,1,2,1,2,1    Farrelly, Mr.                    130
    697000 636P01     Hn Span III Plan      0,0,0,0,0,8    Torres, Mr.  LO
    698001 63601      Hon. Span III-01      5,0,3,8,7,6    Thomas, Mrs.                     114
    698002 63602      Hon. Span III-02      6,5,4,0,8,7    Torres, Mr.                      120
    700001 63701      Spanish III-01        4,3,8,7,6,0    Torres, Mr.                      120
    700002 63702      Spanish III-02        8,7,6,0,4,3    Torres, Mr.  120
    700003 63703      Spanish III-03        2,1,2,1,0,1    Torres, Mr.                      120
    700004 63704      Spanish III-04        1,2,0,2,1,2    Giordano, Mrs.                   137
    700005 63705      Spanish III-05        0,5,4,3,8,7    Giordano, Mrs.  137
    702000 637P01     Span III 637 Pln      0,0,1,0,0,0    Torres, Mr.  LO
    704001 63801      Conv Span III-01      0,3,8,7,6,5    Maly, Ms.                        111,114,124,138
    704002 63802      Conv Span III-02      6,5,4,0,8,7    Maly, Ms.                        108,111,115,137,139
    708000 64101      Hon. French IV        1,2,1,2,1,2    Goudou, Mr.  135
    710000 64201      French IV 642         0,2,1,2,1,2    Goudou, Mr.  135
    711000 64301      Honors German IV      1,2,1,2,1,2    Filberg, Br. Charles  118
    712000 64401      German IV 644         1,0,1,2,1,2    Filberg, Br. Charles  118
    712500 64501      Hn Latin IV 645       0,2,1,2,1,2    Farrelly, Mr.                    130
    713000 64601      Hon. Spanish IV       5,0,3,8,7,6    Torres, Mr.  120
    714001 64701      Spanish IV 647-01     1,2,0,2,1,2    Thomas, Mrs.                     114
    714002 64702      Spanish IV 647-02     3,8,7,6,5,0    Thomas, Mrs.                     114
    714003 64703      Spanish IV 647-03     6,5,4,0,8,7    Thomas, Mrs.                     114
    715000 64801      Span for Communc      0,2,1,2,1,2    Maly, Ms.  120,122,139
    718000 65101      AP French 651         4,3,8,7,6,5    Goudou, Mr.  135
    726000 65601      AP Spanish            1,2,0,2,12,2   Torres, Mr.  120


  
       Schedule Roster   10/03/2016                                             Page -9-

    728000 65701      Spanish V             2,1,0,1,2,1    Thomas, Mrs.   114
    730000 65801      Hon Spanish V         2,1,0,1,2,1    Thomas, Mrs.   114
    732500 66401      Hon. German V         8,6,0,0,0,0    Filberg, Br. Charles  118
    735500 69401      Mandarin Chinese I    5,4,3,8,7,0    Freeman, Mr.   116
    735600 69501      Mand Chinese II       7,6,0,4,3,8    Freeman, Mr.   116
    735700 694H01     Hnrs Mand Chinese     5,4,3,8,7,6    Freeman, Mr.   116
    735800 695H01     Hnrs Mand Chin II     7,6,5,4,3,8    Freeman, Mr.   116
    738000 700A01     Band A                9,0,0,0,0,0    Ecton, Mr.   300
    738100 700B01     Band B                0,9,0,0,0,0    Smith, Mr. Robert   300
    738200 700C01     Band C                0,0,9,0,0,0    Fabian, Ms.  300
    739000 702A01     Woodwinds A           0,0,0,0,8,0    Ecton, Mr.   300B
    739100 702B01     Woodwinds B           0,4,0,0,0,0    Ecton, Mr.   300C
    739200 702C01     Woodwinds C           6,0,0,0,0,0    Ecton, Mr.   300A
    739300 702D01     Woodwinds D           0,8,0,0,0,0    Smith, Mr. Robert   300A
    739400 702E01     Woodwind E            0,0,0,0,0,6    Smith, Mr. Robert   300A
    739500 702F01     Woodwinds F           5,0,0,0,0,0    Smith, Mr. Robert   300C
    739600 702G01     Woodwinds G           0,0,0,0,0,4    Fabian, Ms.  300B
    739700 702H01     Woodwinds H           0,0,7,0,0,0    Fabian, Ms.  300
    743000 703A01     Strings A             0,0,0,0,4,0    Smith, Mr. Robert   300A
    743100 703B01     Strings B             0,0,3,0,0,0    Smith, Mr. Robert   300C
    743200 703C01     Strings C             0,0,0,1,0,0    Smith, Mr. Robert   300B
    743300 703D01     Strings D             0,0,0,5,0,0    Smith, Mr. Robert   300B
    745000 705A01     Trmpt/Fr Hrn A        0,0,8,0,0,0    Ecton, Mr.   300C
    745100 705B01     Trumpet/Horn B        7,0,0,0,0,0    Ecton, Mr.   300A
    745200 705C01     Trumpet/Horn C        0,0,0,0,0,1    Ecton, Mr.   300
    745300 705D01     Trumpet/Horn D        3,0,0,0,0,0    Ecton, Mr.   300B
    747000 707A01     Low Brass A           0,0,0,6,0,0    Ecton, Mr.
    747100 707B01     Low Brass B           0,0,0,0,7,0    Ecton, Mr. + Marini, Mr.  700C
    747200 707C01     Low Brass C           0,0,0,0,5,0    Smith, Mr. Robert   300C
    747300 707D01     Low Brass D           6,0,0,0,0,0    Smith, Mr. Robert   300C
    748000 708A01     Percussion A          0,0,0,3,0,0    Fabian, Ms.  300
    748100 708B01     Percussion B          5,0,0,0,0,0    Fabian, Ms.  300B
    748200 708C01     Percussion C          0,0,0,0,0,8    Fabian, Ms.  300
    780001 71001      Fund of Music-01      7,0,5,0,0,8    Smith, Mr. Robert   300C
    780002 71002      Fund of Music-02      0,2,0,2,1,0    Smith, Mr. Robert   300C
    780003 71003      Fund of Music-03      0,3,0,7,0,5    Smith, Mr. Robert   300C
    781000 710S01     Fund of Music St      8,1,0,0,2,0    Smith, Mr. Robert   300C
    782500 710D01     Fund of Music Per     0,1,0,0,2,2    Fabian, Ms.  300
    784000 71101      Fnd Music Theory      0,1,0,1,2,0    Ecton, Mr.   300A,320
    790000 71201      Jazz Theor Impro      1,2,0,0,1,0    Ecton, Mr.   300
    793000 71401      AP Music Theory       8,0,2,0,5,5
    798001 71601      History of Jazz-01    0,3,0,7,0,5    Fabian, Ms.                      320
    798002 71602      History of Jazz-02    0,6,0,4,3,0    Fabian, Ms.                      320
    798003 71603      History of Jazz-03    0,7,6,0,0,3    Fabian, Ms.                      320
    805001 71701      Hist Rock & Roll-01   4,0,8,0,0,5    King, Kevin                      306
    805002 71702      Hist Rock & Roll-02   5,0,0,8,0,6    King, Kevin                      306
    805003 71703      Hist Rock & Roll-03   0,4,3,0,7,0    King, Kevin                      306
    806001 71801      Intro to Music-01     0,3,0,7,6,0    King, Kevin                      306
    806002 71802      Intro to Music-02     0,0,0,4,3,8    King, Kevin                      306
    806003 71803      Intro to Music-03     0,7,6,0,0,3    King, Kevin                      306
    808001 72001      Guitar-01             1,0,1,0,0,2    King, Kevin                      306
    808002 72002      Guitar-02             0,2,0,2,1,0    King, Kevin                      306
    815000 72101      Intermd Guitar        1,0,3,0,1,0    Carbine, Mr.   300A
    830000 73001      Hallmen Chorus        6,5,4,3,8,7    King, Kevin  306
    835000 73601      Vocal Ensemble        9,0,0,0,0,0    King, Kevin  306
    835500 73701      Madrigal Ensmble      0,0,0,0,0,9    King, Kevin  306
    835800 74101      Chamber Chorus        0,0,0,0,0,0    King, Kevin
    836000 740A01     Jazz A                0,0,0,9,0,0    Ecton, Mr.   320
    836100 740B01     Jazz B                0,0,0,0,9,0    Smith, Mr. Robert   330
    836200 740C01     Jazz C                0,0,0,0,0,9    Fabian, Ms.  300
    838000 740S01     Jazz Combo            0,0,0,0,0,7    Ecton, Mr.   300
    839000 74201      Brass Ensemble        0,0,4,0,6,0    Smith, Mr. Robert   300
    840000 74401      Woodwind Ensembl      0,5,0,4,0,0    Smith, Mr. Robert   300B
    841000 74601      String Ensemble       0,7,0,3,0,3    Smith, Mr. Robert   300
    841500 74801      Percussion Ensembl    0,0,0,0,5,0    Fabian, Ms.  300
    842000 750A01     Rhythm section A      0,0,1,0,0,0    Ecton, Mr.   300B
    842200 750B01     Rhythm Section B      0,0,8,0,0,0    Smith, Mr. Robert   300A
    842300 750 C01    Rhythm Secion C       0,4,0,0,0,0    Fabian, Ms.  300B
    844000 75101      Basic Art             6,5,0,3,8,7    Doyle, Mr.  240


  
       Schedule Roster   10/03/2016                                             Page -10-

    845001 75301      Intr Graph Design-01  0,2,0,2,1,0    Doyle, Mr.                       211
    845002 75302      Intr Graph Design-02  0,0,5,4,0,8    Doyle, Mr.                       211
    846001 76101      Adv. Painting-01      2,1,2,1,0,1    Doyle, Mr.                       240
    846002 76102      Adv. Painting-02      5,0,3,8,7,6    Doyle, Mr.                       240
    848000 77101      Sculpture/Design      4,0,8,7,6,5    Doyle, Mr.  240
    849000 77501      Fund of Art           1,0,1,0,0,2    Doyle, Mr.  240
    850000 79101      AP Art                0,2,1,2,1,2    Janishefski, Mr.   240
    856001 81101      PE. I/Health 811-01   3,0,0,0,0,0    Fitzmaurice, Mr.                 Gym
    856002 81102      PE. I/Health 811-02   4,0,0,0,0,0    Marshall, Mr.                    Gym
    856003 81103      PE. I/Health 811-03   6,0,0,0,0,0    Fitzmaurice, Mr.                 Gym
    856004 81104      PE. I/Health 811-04   0,4,0,0,0,0    Marshall, Mr.                    Gym
    856005 81105      PE. I/Health 811-05   0,5,0,0,0,0    Fitzmaurice, Mr.                 Gym
    856006 81106      PE. I/Health 811-06   0,6,0,0,0,0    Marshall, Mr.                    Gym
    856007 81107      PE. I/Health 811-07   0,7,0,0,0,0    Fitzmaurice, Mr.                 Gym
    857001 811A01     Health/PE I 811A-01   3,0,0,0,0,0    Zinn, Mr.                        139
    857002 811A02     Health/PE I 811A-02   4,0,0,0,0,0    Zinn, Mr.                        139
    857003 811A03     Health/PE I 811A-03   6,0,0,0,0,0    Zinn, Mr.                        139
    857004 811A04     Health/PE I 811A-04   0,4,0,0,0,0    Zinn, Mr.                        139
    857005 811A05     Health/PE I 811A-05   0,5,0,0,0,0    Zinn, Mr.                        139
    857006 811A06     Health/PE I 811A-06   0,6,0,0,0,0    Zinn, Mr.                        139
    857007 811A07     Health/PE I 811A-07   0,7,0,0,0,0    Zinn, Mr.                        139
    858001 81201      PE. I/Health 812-01   0,0,3,0,0,0    Fitzmaurice, Mr.                 GYM
    858002 81202      PE. I/Health 812-02   0,0,5,0,0,0    Marshall, Mr.                    GYM
    858003 81203      PE. I/Health 812-03   0,0,6,0,0,0    Fitzmaurice, Mr.                 GYM
    858004 81204      PE. I/Health 812-04   0,0,7,0,0,0    Marshall, Mr.                    GYM
    858005 81205      PE. I/Health 812-05   0,0,0,3,0,0    Fitzmaurice, Mr.                 GYM
    858006 81206      PE. I/Health 812-06   0,0,0,5,0,0    Marshall, Mr.                    Gym
    858007 81207      PE. I/Health 812-07   0,0,0,7,0,0    Fitzmaurice, Mr.                 Gym
    859001 812A01     Health/PE I 812A-01   0,0,3,0,0,0    Zinn, Mr.                        139
    859002 812A02     Health/PE I 812A-02   0,0,5,0,0,0    Zinn, Mr.                        139
    859003 812A03     Health/PE I 812A-03   0,0,6,0,0,0    Zinn, Mr.                        139
    859004 812A04     Health/PE I 812A-04   0,0,7,0,0,0    Zinn, Mr.                        139
    859005 812A05     Health/PE I 812A-05   0,0,0,3,0,0    Zinn, Mr.                        139
    859006 812A06     Health/PE I 812A-06   0,0,0,5,0,0    Zinn, Mr.                        139
    859007 812A07     Health/PE I 812A-07   0,0,0,7,0,0    Zinn, Mr.                        139
    860001 81301      PE. I/Health 813-01   0,0,0,0,4,0    Fitzmaurice, Mr.                 Gym
    860002 81302      PE. I/Health 813-02   0,0,0,0,5,0    Marshall, Mr.                    Gym
    860003 81303      PE. I/Health 813-03   0,0,0,0,6,0    Fitzmaurice, Mr.                 Gym
    860004 81304      PE. I/Health 813-04   0,0,0,0,0,3    Marshall, Mr.                    Gym
    860005 81305      PE. I/Health 813-05   0,0,0,0,0,4    Fitzmaurice, Mr.                 Gym
    860006 81306      PE. I/Health 813-06   0,0,0,0,0,6    Marshall, Mr.                    Gym
    860007 81307      PE. I/Health 813-07   0,0,0,0,0,7    Fitzmaurice, Mr.                 Gym
    861001 813A01     Health/PE I 813A-01   0,0,0,0,4,0    Zinn, Mr.                        139
    861002 813A02     Health/PE I 813A-02   0,0,0,0,5,0    Zinn, Mr.                        139
    861003 813A03     Health/PE I 813A-03   0,0,0,0,6,0    Zinn, Mr.                        139
    861004 813A04     Health/PE I 813A-04   0,0,0,0,0,3    Zinn, Mr.                        139
    861005 813A05     Health/PE I 813A-05   0,0,0,0,0,4    Zinn, Mr.                        139
    861006 813A06     Health/PE I 813A-06   0,0,0,0,0,6    Zinn, Mr.                        139
    861007 813A07     Health/PE I 813A-07   0,0,0,0,0,7    Zinn, Mr.                        139
    862001 82101      Phys Ed II 821-01     1,0,0,0,0,0    Marshall, Mr.  Gym
    862002 82102      Phys Ed II 821-02     0,0,2,0,0,0    Marshall, Mr.  Gym
    862003 82103      Phys Ed II 821-03     7,0,0,0,0,0    Marshall, Mr.  Gym
    862004 82104      Phys Ed II 821-04     0,1,0,0,0,0    Marshall, Mr.  Gym
    862005 82105      Phys Ed II 821-05     0,3,0,0,0,0    Marshall, Mr.  Gym
    862006 82106      Phys Ed II 821-06     0,0,1,0,0,0    Marshall, Mr.  Gym
    862007 82107      Phys Ed II 821-07     0,0,4,0,0,0    Marshall, Mr.  Gym
    864001 82201      Phys Ed. II 822-01    0,0,0,1,0,0    Marshall, Mr.  Gym
    864002 82202      Phys Ed. II 822-02    0,0,0,8,0,0    Marshall, Mr.  Gym
    864003 82203      Phys Ed. II 822-03    0,0,0,0,2,0    Marshall, Mr.  Gym
    864004 82204      Phys Ed. II 822-04    0,0,0,0,3,0    Marshall, Mr.  Gym
    864005 82205      Phys Ed. II 822-05    0,0,0,0,8,0    Marshall, Mr.  Gym
    864006 82206      Phys Ed. II 822-06    0,0,0,0,0,1    Marshall, Mr.  Gym
    864007 82207      Phys Ed. II 822-07    0,0,0,0,0,2    Marshall, Mr.  Gym
    868000 90101      Humanities I          0,2,0,2,1,0    Moore, Mr.   123,210
    876000 90301      McMullen Capstone     0,0,0,5,8,0    Vernamonti, Mr.   108
    878000 90701      Learning Center       0,0,0,0,9,0
    900001 90001      Cafe Proctor-01       1,0,0,0,0,0    Fabian, Ms.  CAFE
    900002 90002      Cafe Proctor-02       2,0,0,0,0,0    Marshall, Mr.  CAFE
    900003 90003      Cafe Proctor-03       3,0,0,0,0,0    Robinson, Mr.  CAFE


  
       Schedule Roster   10/03/2016                                             Page -11-

    900004 90004      Cafe Proctor-04       4,0,0,0,0,0    Fitzmaurice, Mr.   CAFE
    900005 90005      Cafe Proctor-05       5,0,0,0,0,0    Zinkand, Mr.   CAFE
    900006 90006      Cafe Proctor-06       6,0,0,0,0,0    Fabian, Ms.  CAFE
    900007 90007      Cafe Proctor-07       0,1,0,0,0,0    McMullen, Mr.  CAFE
    900008 90008      Cafe Proctor-08       0,2,0,0,0,0    Fabian, Ms.  CAFE
    900009 90009      Cafe Proctor-09       0,3,0,0,0,0    Bobak, Brian  CAFE
    900010 90010      Cafe Proctor-10       0,4,0,0,0,0    Alsedek, Mr.  CAFE
    900011 90011      Cafe Proctor-11       0,5,0,0,0,0    Radebaugh, Mr.  CAFE
    900012 90012      Cafe Proctor-12       0,6,0,0,0,0    Doyle, Mr.  CAFE
    900013 90013      Cafe Proctor-13       0,0,1,0,0,0    Clark, Mr.  CAFE
    900014 90014      Cafe Proctor-14       0,0,2,0,0,0    Fabian, Ms.  CAFE
    900015 90015      Cafe Proctor-15       0,0,3,0,0,0    Davis, Mr.  CAFE
    900016 90016      Cafe Proctor-16       0,0,4,0,0,0    Fabian, Ms.  CAFE
    900017 90017      Cafe Proctor-17       0,0,5,0,0,0    Johnson, Mrs.  CAFE
    900018 90018      Cafe Proctor-18       0,0,6,0,0,0    Davis, Mr.  CAFE
    900019 90019      Cafe Proctor-19       0,0,0,1,0,0    Davis, Mr.  CAFE
    900020 90020      Cafe Proctor-20       0,0,0,2,0,0    Fitzmaurice, Mr.   CAFE
    900021 90021      Cafe Proctor-21       0,0,0,3,0,0    Zinkand, Mr.   CAFE
    900022 90022      Cafe Proctor-22       0,0,0,4,0,0    Marshall, Mr.  CAFE
    900023 90023      Cafe Proctor-23       0,0,0,5,0,0    Davis, Mr.  CAFE
    900024 90024      Cafe Proctor-24       0,0,0,6,0,0    Fabian, Ms.  CAFE
    900025 90025      Cafe Proctor-25       0,0,0,0,1,0    Marshall, Mr.  CAFE
    900026 90026      Cafe Proctor-26       0,0,0,0,2,0    Doyle, Mr.  CAFE
    900027 90027      Cafe Proctor-27       0,0,0,0,3,0    Medina, Ryan  CAFE
    900028 90028      Cafe Proctor-28       0,0,0,0,4,0    Blake, Mr.   CAFE
    900029 90029      Cafe Proctor-29       0,0,0,0,5,0    Ecton, Mr.   CAFE
    900030 90030      Cafe Proctor-30       0,0,0,0,6,0    Fabian, Ms.  CAFE
    900031 90031      Cafe Proctor-31       0,0,0,0,0,1    Smith, Mr. Robert   CAFE
    900032 90032      Cafe Proctor-32       0,0,0,0,0,2    Ortiz, Mr.  CAFE
    900033 90033      Cafe Proctor-33       0,0,0,0,0,3    Fan, Mr.  CAFE
    900034 90034      Cafe Proctor-34       0,0,0,0,0,4    Knight, Mr.  CAFE
    900035 90035      Cafe Proctor-35       0,0,0,0,0,5    Sundell, Mr.   CAFE
    900036 90036      Cafe Proctor-36       0,0,0,0,0,6    Fitzmaurice, Mr.   CAFE
    920001 92001      Math Resource-01      1,0,0,0,0,0    Chung, Br. John  MRC
    920002 92002      Math Resource-02      2,0,0,0,0,0    Irving, Mrs.  MRC
    920003 92003      Math Resource-03      3,0,0,0,0,0    Lobdell, Mr.  MRC
    920004 92004      Math Resource-04      4,0,0,0,0,0    Lawless, Br. John  MRC
    920005 92005      Math Resource-05      5,0,0,0,0,0    Riley, Ms.   MRC
    920006 92006      Math Resource-06      6,0,0,0,0,0    Brandell, Mr.   MRC
    920007 92007      Math Resource-07      0,1,0,0,0,0    Brandell, Mr.   MRC
    920008 92008      Math Resource-08      0,2,0,0,0,0    Chung, Br. John  MRC
    920009 92009      Math Resource-09      0,4,0,0,0,0    Joseph, Ms.  MRC
    920010 92010      Math Resource-10      0,5,0,0,0,0    Lawless, Br. John  MRC
    920011 92011      Math Resource-11      0,0,0,0,0,3    Brown, Mr.   MRC
    920012 92012      Math Resource-12      0,0,2,0,0,0    Miceli, Mr.   MRC
    920013 92013      Math Resource-13      0,0,3,0,0,0    Lawless, Br. John  MRC
    920014 92014      Math Resource-14      0,0,5,0,0,0    Lobdell, Mr.  MRC
    920015 92015      Math Resource-15      0,0,6,0,0,0    Riley, Ms.   MRC
    920016 92016      Math Resource-16      0,0,0,0,0,5    Caldwell, Ms.    MRC
    920017 92017      Math Resource-17      0,0,0,1,0,0    Chung, Br. John  MRC
    920018 92018      Math Resource-18      0,0,0,2,0,0    Riley, Ms.   MRC
    920019 92019      Math Resource-19      0,0,0,3,0,0    Joseph, Ms.  MRC
    920020 92020      Math Resource-20      0,0,0,4,0,0    Lawless, Br. John  MRC
    920021 92021      Math Resource-21      0,0,0,0,0,6    Brown, Mrs.  MRC
    920022 92022      Math Resource-22      0,0,0,0,1,0    Caldwell, Ms.    MRC
    920023 92023      Math Resource-23      0,0,0,0,2,0    Lobdell, Mr.  MRC
    920024 92024      Math Resource-24      0,0,0,0,3,0    Brandell, Mr.   MRC
    920025 92025      Math Resource-25      0,0,0,0,4,0    Lawless, Br. John  MRC
    920026 92026      Math Resource-26      0,0,0,0,6,0    Riley, Ms.   MRC
    920027 92027      Math Resource-27      0,0,0,0,0,2    Riley, Ms.   MRC
    954001 954001     Cafe 7th-01           7,0,0,0,0,0    Fabian, Ms.  CAFE
    954002 954002     Cafe 7th-02           0,7,0,0,0,0    Marshall, Mr.  CAFE
    954003 954003     Cafe 7th-03           0,0,7,0,0,0    Smith, Mr. Robert   CAFE
    954004 954004     Cafe 7th-04           0,0,0,7,0,0    Willenborg, Mrs.  CAFE
    954005 954005     Cafe 7th-05           0,0,0,0,7,0    Fitzmaurice, Mr.   CAFE
    954006 954006     Cafe 7th-06           0,0,0,0,0,7    Marshall, Mr.  CAFE
    965001 965001     MRC 7th-01            7,0,0,0,0,0    Brown, Mr.   MRC
    965002 965002     MRC 7th-02            0,7,0,0,0,0    Lawless, Br. John  MRC
    965003 965003     MRC 7th-03            0,0,7,0,0,0    Brandell, Mr.   MRC


  
       Schedule Roster   10/03/2016                                             Page -12-

    965004 965004     MRC 7th-04            0,0,0,7,0,0    Irving, Mrs.  MRC
    965005 965005     MRC 7th-05            0,0,0,0,0,7    Brown, Mr.   MRC
    966001 96601      Acad Res 7th-01       7,0,0,0,0,0    Hallman, Mr.  ARC
    966002 96602      Acad Res 7th-02       0,7,0,0,0,0    Cvach, Ms.  ARC
    966003 96603      Acad Res 7th-03       0,0,7,0,0,0    Hattrup, Mr.  ARC
    966004 96604      Acad Res 7th-04       0,0,0,7,0,0    Warren, Mrs.  ARC
    966005 96605      Acad Res 7th-05       0,0,0,0,7,0    Greco, Mr.  ARC
    966006 96606      Acad Res 7th-06       0,0,0,0,0,7    Cvach, Ms.  ARC
    985001 98501      Peer Ed/Advisory-01   3,0,0,0,0,0    Atas, Mr.                        113
    985002 98502      Peer Ed/Advisory-02   4,0,0,0,0,0    Atas, Mr.                        117
    985003 98503      Peer Ed/Advisory-03   7,0,0,0,0,0    Atas, Mr.                        139
    985004 98504      Peer Ed/Advisory-04   0,1,0,0,0,0    Atas, Mr.                        111
    985005 98505      Peer Ed/Advisory-05   0,2,0,0,0,0    Atas, Mr.                        109
    985006 98506      Peer Ed/Advisory-06   0,4,0,0,0,0    Atas, Mr.                        114
    985007 98507      Peer Ed/Advisory-07   0,6,0,0,0,0    Atas, Mr.                        120
    985008 98508      Peer Ed/Advisory-08   0,0,6,0,0,0    Atas, Mr.                        114
    985009 98509      Peer Ed/Advisory-09   0,0,7,0,0,0    Atas, Mr.                        116
    985010 98510      Peer Ed/Advisory-10   0,0,0,1,0,0    Atas, Mr.                        135
    985011 98511      Peer Ed/Advisory-11   0,0,0,3,0,0    Atas, Mr.                        130
    985012 98512      Peer Ed/Advisory-12   0,0,0,7,0,0    Atas, Mr.                        212
    985013 98513      Peer Ed/Advisory-13   0,0,0,0,5,0    Atas, Mr.                        117
    985014 98514      Peer Ed/Advisory-14   0,0,0,0,6,0    Atas, Mr.                        117
    985015 98515      Peer Ed/Advisory-15   0,0,0,0,0,2    Atas, Mr.                        123
    985016 98516      Peer Ed/Advisory-16   0,0,0,0,0,7    Atas, Mr.                        211
    986001 98601      Guidance Pgm 10-01    1,0,0,0,0,0    Tracey, Ms.                      132
    986002 98602      Guidance Pgm 10-02    5,0,0,0,0,0    Tracey, Ms.                      123
    986003 98603      Guidance Pgm 10-03    8,0,0,0,0,0    Tracey, Ms.                      107
    986004 98604      Guidance Pgm 10-04    0,6,0,0,0,0    Tracey, Ms.                      109
    986005 98605      Guidance Pgm 10-05    0,7,0,0,0,0    Tracey, Ms.                      109
    986006 98606      Guidance Pgm 10-06    0,0,1,0,0,0    Tracey, Ms.                      109
    986007 98607      Guidance Pgm 10-07    0,0,2,0,0,0    Tracey, Ms.                      132
    986008 98608      Guidance Pgm 10-08    0,0,0,3,0,0    Tracey, Ms.                      100
    986009 98609      Guidance Pgm 10-09    0,0,0,5,0,0    Tracey, Ms.                      100
    986010 98610      Guidance Pgm 10-10    0,0,0,0,1,0    Tracey, Ms.                      115
    986011 98611      Guidance Pgm 10-11    0,0,0,0,6,0    Tracey, Ms.                      115
    986012 98612      Guidance Pgm 10-12    0,0,0,0,0,2    Tracey, Ms.                      109
    986013 98613      Guidance Pgm 10-13    0,0,0,0,0,3    Tracey, Ms.                      109
    986014 98614      Guidance Pgm 10-14    0,0,0,0,0,4    Tracey, Ms.                      134
    995001 99501      Acad Resource-01      1,0,0,0,0,0    Sundell, Mr.   ARC
    995002 99502      Acad Resource-02      2,0,0,0,0,0    Radebaugh, Mr.  ARC
    995003 99503      Acad Resource-03      3,0,0,0,0,0    Fan, Mr.  ARC
    995004 99504      Acad Resource-04      4,0,0,0,0,0    Zinkand, Mr.   ARC
    995005 99505      Acad Resource-05      5,0,0,0,0,0    Dobrzycki, Mr.  ARC
    995006 99506      Acad Resource-06      6,0,0,0,0,0    Cvach, Ms.  ARC
    995007 99507      Acad Resource-07      0,1,0,0,0,0    Passaro, Mr.  ARC
    995008 99508      Acad Resource-08      0,2,0,0,0,0    Ward, Mrs.  ARC
    995009 99509      Acad Resource-09      0,3,0,0,0,0    Siegner, Aaron  ARC
    995010 99510      Acad Resource-10      0,4,0,0,0,0    McMullen, Mr.  ARC
    995011 99511      Acad Resource-11      0,5,0,0,0,0    Greco, Mr.  ARC
    995012 99512      Acad Resource-12      0,6,0,0,0,0    Frein, Peter  ARC
    995013 99513      Acad Resource-13      0,0,1,0,0,0    Miller, Ben  ARC
    995014 99514      Acad Resource-14      0,0,2,0,0,0    Bondyra, Mrs.  ARC
    995015 99515      Acad Resource-15      0,0,3,0,0,0    Tracey, Ms.  ARC
    995016 99516      Acad Resource-16      0,0,4,0,0,0    Blake, Mr.   ARC
    995017 99517      Acad Resource-17      0,0,5,0,0,0    Atas, Mr.  ARC
    995018 99518      Acad Resource-18      0,0,6,0,0,0    Ford, Mr.  ARC
    995019 99519      Acad Resource-19      0,0,0,1,0,0    Ford, Mr.  ARC
    995020 99520      Acad Resource-20      0,0,0,2,0,0    Medina, Ryan  ARC
    995021 99521      Acad Resource-21      0,0,0,3,0,0    Greco, Mr.  ARC
    995022 99522      Acad Resource-22      0,0,0,4,0,0    Alsedek, Mr.  ARC
    995023 99523      Acad Resource-23      0,0,0,5,0,0    Motsay, Mr.   ARC
    995024 99524      Acad Resource-24      0,0,0,6,0,0    Sundell, Mr.   ARC
    995025 99525      Acad Resource-25      0,0,0,0,1,0    Fan, Mr.  ARC
    995026 99526      Acad Resource-26      0,0,0,0,2,0    Ford, Mr.  ARC
    995027 99527      Acad Resource-27      0,0,0,0,3,0    Radebaugh, Mr.  ARC
    995028 99528      Acad Resource-28      0,0,0,0,4,0    Trichtinger, Brother  ARC
    995029 99529      Acad Resource-29      0,0,0,0,5,0    Hattrup, Mr.  ARC
    995030 99530      Acad Resource-30      0,0,0,0,6,0    Willenborg, Mrs.  ARC
    995031 99531      Acad Resource-31      0,0,0,0,0,1    Aquilla, Kelly  ARC


  
       Schedule Roster   10/03/2016                                             Page -13-

    995032 99532      Acad Resource-32      0,0,0,0,0,2    Ford, Mr.  ARC
    995033 99533      Acad Resource-33      0,0,0,0,0,3    Barczak, Mr.   ARC
    995034 99534      Acad Resource-34      0,0,0,0,0,4    Amatucci, Mr.   ARC
    995035 99535      Acad Resource-35      0,0,0,0,0,5    Radebaugh, Mr.  ARC
    995036 99536      Acad Resource-36      0,0,0,0,0,6    McMullen, Mr.  ARC
    995501 996A01     Jr College Adv-01     3,0,0,0,0,0    Almeter, Mrs.                    129
    995502 996A02     Jr College Adv-02     0,4,0,0,0,0    Almeter, Mrs.                    107
    995503 996A03     Jr College Adv-03     0,0,0,5,0,0    Almeter, Mrs.                    141
    995504 996A04     Jr College Adv-04     0,0,0,0,4,0    Almeter, Mrs.                    109
    995505 996A05     Jr College Adv-05     0,0,0,0,7,0    Almeter, Mrs.                    129
    995506 996A06     Jr College Adv-06     0,0,0,0,0,4    Almeter, Mrs.                    114
    996001 996K01     Jr College Adv-01     0,5,0,0,0,0    Kerr, Mr.                        106
    996002 996K02     Jr College Adv-02     0,0,1,0,0,0    Kerr, Mr.                        141
    996003 996K03     Jr College Adv-03     0,0,2,0,0,0    Kerr, Mr.                        141
    996004 996K04     Jr College Adv-04     0,0,0,2,0,0    Kerr, Mr.                        113
    996005 996K05     Jr College Adv-05     0,0,0,0,1,0    Kerr, Mr.                        109
    996006 996K06     Jr College Adv-06     0,0,0,0,7,0    Kerr, Mr.                        131
    996501 996V01     Jr College Adv-01     0,0,1,0,0,0    Vernamonti, Mr.                  111
    996502 996V02     Jr College Adv-02     0,0,0,6,0,0    Vernamonti, Mr.                  136
    996503 996V03     Jr College Adv-03     0,0,0,8,0,0    Vernamonti, Mr.                  118
    996504 996V04     Jr College Adv-04     0,0,0,0,0,4    Vernamonti, Mr.                  118
    996505 996V05     Jr College Adv-05     0,0,0,0,0,6    Vernamonti, Mr.                  105
    996801 997A01     Sr. College Adv-01    0,0,2,0,0,0    Almeter, Mrs.                    115
    996802 997A02     Sr. College Adv-02    0,0,0,6,0,0    Almeter, Mrs.                    141
    996803 997A03     Sr. College Adv-03    0,0,0,7,0,0    Almeter, Mrs.                    211
    996804 997A04     Sr. College Adv-04    0,0,0,0,3,0    Almeter, Mrs.                    109
    996805 997A05     Sr. College Adv-05    0,0,0,0,0,3    Almeter, Mrs.                    114
    996806 997A06     Sr. College Adv-06    0,0,0,0,0,6    Almeter, Mrs.                    113
    997001 997K01     Sr College Adv-01     0,1,0,0,0,0    Kerr, Mr.                        100
    997002 997K02     Sr College Adv-02     0,0,0,5,0,0    Kerr, Mr.                        105
    997003 997K03     Sr College Adv-03     0,0,0,0,3,0    Kerr, Mr.                        100
    997004 997K04     Sr College Adv-04     0,0,0,0,6,0    Kerr, Mr.                        129
    997005 997K05     Sr College Adv-05     0,0,0,0,0,4    Kerr, Mr.                        105
    997006 997K06     Sr College Adv-06     0,0,0,0,0,5    Kerr, Mr.                        105
    997501 997V01     Sr College Adv-01     2,0,0,0,0,0    Vernamonti, Mr.                  118
    997502 997V02     Sr College Adv-02     7,0,0,0,0,0    Vernamonti, Mr.                  118
    997503 997V03     Sr College Adv-03     0,0,5,0,0,0    Vernamonti, Mr.                  118
    997504 997V04     Sr College Adv-04     0,0,7,0,0,0    Vernamonti, Mr.                  111
    997505 997V05     Sr College Adv-05     0,0,0,0,3,0    Vernamonti, Mr.                  118
    997506 997V06     Sr College Adv-06     0,0,0,0,7,0    Vernamonti, Mr.                  123
    997507 997V07     Sr College Adv-07     0,0,0,0,0,2    Vernamonti, Mr.                  138
    998001 99801      Jr McMul Col Adv-01   0,4,0,0,0,0    Vernamonti, Mr.                  118
    998002 99802      Jr McMul Col Adv-02   0,0,0,1,0,0    Vernamonti, Mr.                  111
    998003 99803      Jr McMul Col Adv-03   0,0,0,0,0,8    Vernamonti, Mr.                  118
    998500 998F01     Internat Sem          2,0,0,0,0,0    Fan, Mr.  SSO
